<?xml version="1.0" encoding="utf-8"?>
<!-- Generator: Adobe Illustrator 18.0.0, SVG Export Plug-In . SVG Version: 6.00 Build 0)  -->
<!DOCTYPE svg PUBLIC "-//W3C//DTD SVG 1.1//EN" "http://www.w3.org/Graphics/SVG/1.1/DTD/svg11.dtd">
<svg version="1.1" id="Слой_1" xmlns="http://www.w3.org/2000/svg" xmlns:xlink="http://www.w3.org/1999/xlink" x="0px" y="0px"
	 width="181px" height="26px" viewBox="0 0 181 26" enable-background="new 0 0 181 26" xml:space="preserve">
<g>
	<path fill="#2864AE" d="M29.7,22.9V3.1c0-1,0.2-1.8,0.7-2.3C30.8,0.3,31.5,0,32.2,0c0.8,0,1.4,0.3,1.9,0.8c0.5,0.5,0.7,1.3,0.7,2.3
		v19.8c0,1-0.2,1.8-0.7,2.3C33.6,25.7,33,26,32.2,26c-0.7,0-1.3-0.3-1.8-0.8C29.9,24.7,29.7,23.9,29.7,22.9"/>
	<path fill="#2864AE" d="M168.1,26c-7.2,0-13-5.8-13-13c0-7.2,5.8-13,13-13c7.2,0,13,5.8,13,13C181.1,20.2,175.3,26,168.1,26
		 M168.1,5.3c-4.3,0-7.7,3.5-7.7,7.7c0,4.3,3.5,7.7,7.7,7.7c4.3,0,7.7-3.5,7.7-7.7C175.8,8.7,172.4,5.3,168.1,5.3"/>
	<path fill="#2864AE" d="M109.8,26c-7.2,0-13-5.8-13-13c0-7.2,5.8-13,13-13c7.2,0,13,5.8,13,13C122.8,20.2,117,26,109.8,26
		 M109.8,5.3c-4.3,0-7.7,3.5-7.7,7.7c0,4.3,3.5,7.7,7.7,7.7c4.3,0,7.7-3.5,7.7-7.7C117.5,8.7,114.1,5.3,109.8,5.3"/>
	<path fill="#2864AE" d="M151,13L151,13L151,13c0-2.9-0.9-5.5-2.5-7.7c-2.3-3.1-5.9-5.2-10.1-5.3c-0.1,0-0.3,0-0.4,0
		c0,0-6.5,0-6.5,0c-1.1,0-1.9,0.3-2.4,0.8c-0.5,0.5-0.7,1.3-0.7,2.5V13v0v9.7c0,1.1,0.2,2,0.7,2.5c0.5,0.5,1.3,0.8,2.4,0.8
		c0,0,6.5,0,6.5,0c0.1,0,0.3,0,0.4,0c4.1-0.1,7.8-2.2,10.1-5.3C150,18.5,151,15.9,151,13L151,13L151,13z M138.9,20.7
		c-0.6,0-1.3,0-2,0h-3.4V13v0V5.3h3.4c0.7,0,1.4,0,2,0c2.3,0.3,4.2,1.5,5.4,3.3c0.9,1.2,1.4,2.7,1.4,4.4c0,0,0,0,0,0v0v0
		c0,0,0,0,0,0c0,1.6-0.5,3.1-1.4,4.4C143.1,19.2,141.1,20.4,138.9,20.7"/>
	<path fill="#2864AE" d="M89.5,0.1c-0.9-0.3-2,0.1-2.5,0.9L79.1,13L71.3,1c-0.6-0.8-1.6-1.2-2.5-0.9c-0.9,0.3-1.6,1.2-1.6,2.2v21.2
		c0,1.3,1,2.3,2.3,2.3c1.2,0,2.3-1,2.3-2.3V9.9l5.6,8.5c0,0,0,0,0,0l0,0c0,0,0,0,0,0c0,0.1,0.1,0.1,0.1,0.1c0,0,0,0,0.1,0.1
		c0,0,0.1,0.1,0.1,0.1c0,0,0.1,0.1,0.1,0.1c0,0,0,0,0.1,0.1c0,0,0.1,0.1,0.1,0.1c0,0,0,0,0,0c0,0,0,0,0,0c0,0,0.1,0.1,0.2,0.1
		c0,0,0,0,0,0c0,0,0.1,0,0.1,0.1c0.2,0.1,0.5,0.2,0.7,0.2c0,0,0,0,0,0c0,0,0.1,0,0.1,0c0,0,0.1,0,0.1,0c0,0,0.1,0,0.1,0
		c0,0,0.1,0,0.1,0c0,0,0,0,0,0c0.2,0,0.5-0.1,0.7-0.2c0,0,0.1,0,0.1-0.1c0,0,0,0,0,0c0.1,0,0.1-0.1,0.2-0.1c0,0,0,0,0,0c0,0,0,0,0,0
		c0,0,0.1-0.1,0.1-0.1c0,0,0,0,0.1-0.1c0,0,0.1-0.1,0.1-0.1c0,0,0.1-0.1,0.1-0.1c0,0,0,0,0.1-0.1c0,0,0.1-0.1,0.1-0.1c0,0,0,0,0,0
		l0,0c0,0,0,0,0,0l5.6-8.5v13.6c0,1.3,1,2.3,2.3,2.3c1.2,0,2.3-1,2.3-2.3V2.3C91.1,1.3,90.4,0.4,89.5,0.1"/>
	<path fill="#2864AE" d="M59.5,25.2H42.7c-0.9,0-1.9-0.6-2.2-1.4c-0.4-0.9-0.4-2,0.3-3l13.8-16H43.2c-1.2,0-2.3-1.1-2.3-2.4
		s1-2.1,2.3-2.1h15.3c0.9,0,1.8,0.1,2.6,1c0.7,0.8,0.7,2.5-0.1,3.6L47.7,20.4h11.8c1.2,0,2.1,1.1,2.1,2.4
		C61.7,24.1,60.8,25.2,59.5,25.2"/>
	<path fill="#2864AE" d="M12.9,26c-3.7,0-7.1-1.5-9.5-4.2C1.2,19.4,0,16.3,0,13.2C0,3.6,8,0,13.1,0c5,0,8.6,2.4,8.8,2.5
		C23,3.3,23.3,4.8,22.5,6c-0.7,1.1-2.3,1.4-3.4,0.7c-0.1,0-2.7-1.7-6.1-1.7c-3.2,0-7.5,2.1-7.5,8.3c0,3.5,2.6,7.7,7.4,7.7
		c2.7,0,4.6-0.7,5.7-1.4v-3.7H15c-1.3,0-2.4-1.1-2.4-2.5c0-1.4,1.1-2.5,2.4-2.5h6.2c1.3,0,2.4,1.1,2.4,2.5v7.4
		c0,0.7-0.3,1.3-0.7,1.8C21.2,24.1,17.6,26,12.9,26"/>
	<path opacity="0.3" fill="#2864AE" d="M46.6,20.4L59.8,4.7c0,0,0.4-0.6,0.4-1c0-0.5,0.5-0.6,0.8-0.1C61.2,4,46.6,20.4,46.6,20.4"/>
	<path opacity="0.8" fill="#2864AE" d="M21.8,12.9c0,0,0.4,0.2,0.4,0.8v6c0,0,0.1,0.6-0.2,0.9s0.8-0.1,0.8-1v-5.8
		C22.8,13.8,22.8,13,21.8,12.9"/>
	<path opacity="0.8" fill="#2864AE" d="M2.5,20.6c0,0,4.5,6.6,13.1,4.9C15.7,25.5,8,26.8,2.5,20.6"/>
	<path opacity="0.2" fill="#2864AE" d="M5.7,7.6c0,0-3.6,5.8-0.2,9.9c0.3,0.3,0.6,0.5,0.3-0.2C5.4,16.7,3.5,13.3,5.7,7.6"/>
	<path opacity="0.2" fill="#2864AE" d="M33.4,1.8c0,0,0.6,0.3,0.6,0.8v19.9c0,0-0.2,0.4-0.5,0.5V2.6C33.5,2.6,33.6,2.4,33.4,1.8"/>
	<path opacity="0.2" fill="#2864AE" d="M3.7,12.5c0,0-0.5-4.9,3.8-6.5C8,5.9,8.4,6.2,8,6.7C7.6,7.1,5.1,8.1,3.7,12.5"/>
	<path opacity="0.2" fill="#2864AE" d="M59.4,2.9c0,0,0.1,0.5-0.4,1c-0.4,0.5-14.8,17.8-14.8,17.8l3.2-1.2L59.2,6.6
		C59.2,6.6,62.1,3.7,59.4,2.9"/>
	<path opacity="0.2" fill="#2864AE" d="M40.5,22.3c0,0-0.4,2.1,1.8,2.7c0.3,0.1,0.6,0,0.6,0h16.4c0,0,0.5-0.1,0.8-0.4
		c0,0-0.2,0.6-0.9,0.6H42.5C42.5,25.1,40,24.8,40.5,22.3"/>
	<path opacity="0.2" fill="#2864AE" d="M60.1,24.3c0,0,0.2-0.5-0.1-0.5c-0.3,0-0.6-0.2-0.5-0.3c0.1-0.1-0.1-0.6,0.1-0.9
		s0.7-0.3,0.6,0.1c-0.1,0.5,0,0.7,0.1,0.6C60.3,23.3,60.9,23.6,60.1,24.3"/>
	<path opacity="0.2" fill="#2864AE" d="M71.9,10.1l5.3,8.1c0,0,0.8,1.2,1.9,0.9c0,0-0.9,0.2-2.2-1.7S71.9,10.1,71.9,10.1"/>
	<path opacity="0.2" fill="#2864AE" d="M67.4,24.1c0,0,0.7,1.1,1.9,1.1C69.2,25.2,68.1,25.8,67.4,24.1"/>
	<path opacity="0.2" fill="#2864AE" d="M71.2,10l-0.6,12.1c0,0-0.1,0.6,0.2,0.6c0.2,0,0.4,0,0.5-1C71.4,20.7,71.2,10,71.2,10"/>
	<path opacity="0.2" fill="#2864AE" d="M79,17.4c0,0,0.6-0.2,1-1.3c0.9-1.2,6.9-9.3,6.9-9.3s-0.1,1.1-0.6,1.9s-5.4,7.7-5.4,7.7
		S80.2,17.6,79,17.4"/>
	<path opacity="0.2" fill="#2864AE" d="M89.8,1.9c0,0,1,0.1,1,1.3v19.4c0,0-0.1,0.5-0.4,0.5c-0.4,0-0.4-0.5-0.4-1.1V3
		C90,3,90.2,2.4,89.8,1.9"/>
	<path fill="#2864AE" d="M87.6,0.8c0,0,1.7-0.3,2.7,0.8C90.3,1.6,89.4-0.1,87.6,0.8"/>
	<path opacity="0.2" fill="#2864AE" d="M120.6,17.6c0,0,4.1-6.9-2.9-13.8C117.7,3.8,125.8,9.5,120.6,17.6"/>
	<path opacity="0.2" fill="#2864AE" d="M110.1,3.6c4.7,0,8.6,3.8,8.6,8.4c0,0.9-0.2,1.8-0.4,2.6c0.4-1,0.7-2.1,0.7-3.2
		c0-4.7-4-8.5-9-8.5c-5,0-9,3.8-9,8.5c0,2.2,0.9,4.2,2.3,5.7c-1.1-1.4-1.8-3.2-1.8-5.1C101.5,7.4,105.3,3.6,110.1,3.6"/>
	<path opacity="0.2" fill="#2864AE" d="M178.8,17.6c0,0,4.1-6.9-2.9-13.8C175.9,3.8,184.1,9.5,178.8,17.6"/>
	<path opacity="0.2" fill="#2864AE" d="M168.4,3.6c4.7,0,8.6,3.8,8.6,8.4c0,0.9-0.2,1.8-0.4,2.6c0.4-1,0.7-2.1,0.7-3.2
		c0-4.7-4-8.5-9-8.5c-5,0-9,3.8-9,8.5c0,2.2,0.9,4.2,2.3,5.7c-1.1-1.4-1.8-3.2-1.8-5.1C159.8,7.4,163.6,3.6,168.4,3.6"/>
	<path opacity="0.2" fill="#2864AE" d="M147.1,13.7c0,0,1.6-6.3-5.1-9.5c-0.8-0.4-2.7-0.8-3.9-0.8h-6c0,0,0.3,0.6,0.3,0.9v17.4
		L133,21V4.3h5.4c0,0,4.8-0.1,7.2,3.5C146.3,8.7,147.2,10.4,147.1,13.7"/>
	<path opacity="0.2" fill="#2864AE" d="M129.8,1.1h9.2c0,0,4.7,0.3,7.7,3.2c0,0-1.8-2.5-7.3-3.6c-0.4-0.1-0.9-0.1-0.9-0.1h-7.9
		C130.7,0.5,129.9,0.7,129.8,1.1"/>
	<path opacity="0.2" fill="#2864AE" d="M145.4,10.1c0,0,1.2,2.8-0.2,6.1C145.2,16.3,147.3,13.6,145.4,10.1"/>
	<path opacity="0.2" fill="#2864AE" d="M148.2,6.1c0,0,2.2,3.2,2.2,6.5s-1.3,6.6-3.2,8.5c0,0,2.9-3.5,2.7-8.4
		C150,11.4,149.8,9.1,148.2,6.1"/>
	<path opacity="0.2" fill="#2864AE" d="M168.4,23.8c-6.2,0-11.3-5.1-11.3-11.3c0-2.4,0.7-4.6,2-6.4c-1.4,1.9-2.3,4.3-2.3,6.8
		c0,6.2,5.1,11.3,11.3,11.3c3.8,0,7.2-1.9,9.3-4.9C175.3,22.1,172,23.8,168.4,23.8"/>
	<path opacity="0.2" fill="#2864AE" d="M109.9,23.8c-6.2,0-11.3-5.1-11.3-11.3c0-2.4,0.7-4.6,2-6.4c-1.4,1.9-2.3,4.3-2.3,6.8
		c0,6.2,5.1,11.3,11.3,11.3c3.8,0,7.2-1.9,9.3-4.9C116.8,22.1,113.5,23.8,109.9,23.8"/>
	<path opacity="0.2" fill="#2864AE" d="M14.1,0.2c0,0,4.8,0.5,8,2.8c0.3,0.3,0.3,1.9-0.3,2C21.2,5,21.3,4.8,21.2,5
		c-0.1,0.2,0.2,0.5,0.1,0.6c-0.1,0.1-1.2,0.1-1-0.6c0.3-0.7,0.9-0.2,0.9-0.6c0.1-0.4,0-0.6,0.3-0.8C21.7,3.5,20.5,1.6,14.1,0.2"/>
	<path opacity="0.3" fill="#2864AE" d="M67.7,1.3c0,0,1.3-1.8,3.8,0.4c0,0-0.4-0.3-0.7-0.4c0,0,0.5,0.5,0.7,0.8c0,0-0.9-1.1-2.2-1
		C68.7,1.2,67.5,1.8,67.7,1.3"/>
	<path opacity="0.3" fill="#2864AE" d="M67.5,24.1c0,0,1.4,1.7,2.7,0.6c0,0-0.1-0.2-0.4,0c-0.4,0.2-1.6,0.2-2.1-1
		c0,0,0.3,0.6,0.4,0.8C68.1,24.5,67.7,24.3,67.5,24.1"/>
	<path opacity="0.3" fill="#2864AE" d="M87,1.3c0,0,1.5-1.3,3,0.2c0,0-1.4-1.1-2.7,0C87.2,1.6,86.8,1.6,87,1.3"/>
	<path opacity="0.3" fill="#2864AE" d="M9.7,1.1c0,0,6.8-1.1,11.1,2.3C20.8,3.4,17.8-0.8,9.7,1.1"/>
	<path opacity="0.3" fill="#2864AE" d="M10.7,4.5c0,0,3.9-1.1,6.8,0.8c0,0,0.3,0.3-0.3,0.1C16.7,5.2,14.6,4.2,10.7,4.5"/>
	<path opacity="0.3" fill="#2864AE" d="M19.1,6.3c0,0,1.3,0.8,2.1-0.3c0.1-0.1,0,0.1-0.2,0.4C20.8,6.6,20,7.1,19.1,6.3"/>
	<path opacity="0.3" fill="#2864AE" d="M14,11.9h7.5c0,0-0.5-0.4-0.8-0.4h-6.3C14.5,11.5,14.1,11.7,14,11.9"/>
	<path opacity="0.3" fill="#2864AE" d="M8.1,20.1c0,0,2.8,1.9,7,1.1C15.1,21.2,11.2,23,8.1,20.1"/>
	<path opacity="0.3" fill="#2864AE" d="M2.6,20.4c0,0,6.7,9.3,19.1,2.3C21.7,22.6,11.1,29.2,2.6,20.4"/>
	<path opacity="0.3" fill="#2864AE" d="M31.2,1.1c0,0,1-0.3,1.6,0C32.7,1.2,32.1,0.4,31.2,1.1"/>
	<path opacity="0.3" fill="#2864AE" d="M31,1c0,0,0.4-0.3,0.7-0.4C31.6,0.6,31.2,0.5,31,1"/>
	<path opacity="0.3" fill="#2864AE" d="M30.3,23.9c0,0,0.7,0.9,1.8,0.9c0.6,0,1-0.3,1-0.3s0.1,0.1-0.2,0.3S31.1,25.4,30.3,23.9"/>
	<path opacity="0.3" fill="#2864AE" d="M41.6,3.8c0,0,0.5,0.8,1.3,0.8h11.3L42.8,4.4C42.8,4.4,42.1,4.4,41.6,3.8"/>
	<path opacity="0.3" fill="#2864AE" d="M42.4,1.4h16.8c0,0-0.1-0.2-0.3-0.3H42.8C42.8,1,42.4,1.1,42.4,1.4"/>
	<path opacity="0.3" fill="#2864AE" d="M42.1,1.3c0,0,0.3-0.4,0.7-0.4C42.7,0.9,42.1,0.8,42.1,1.3"/>
	<path opacity="0.3" fill="#2864AE" d="M45.5,21.4h13.5c0,0,0.5-0.3,0.1-0.3H46.1L45.5,21.4z"/>
	<path opacity="0.3" fill="#2864AE" d="M40.7,23.6c0,0,0.6,1.3,1.7,1.3h16.8c0,0,0.4,0,0.6-0.4c0,0-0.3,0.3-0.7,0.3
		c-0.4,0-16.9-0.2-16.9-0.2S41.4,24.5,40.7,23.6"/>
	<path opacity="0.3" fill="#2864AE" d="M77.4,17.6c0,0,1.1,1.7,2.3,0.6C79.7,18.2,78.7,19.8,77.4,17.6"/>
	<path opacity="0.3" fill="#2864AE" d="M86.9,23.6c0,0,0.9,1.6,2.2,1.4C89.1,25,87.5,25.7,86.9,23.6"/>
	<path opacity="0.3" fill="#2864AE" d="M100.6,4.3c0,0,1.7-1.8,3.8-2.8C104.4,1.5,102.2,2,100.6,4.3"/>
	<path opacity="0.3" fill="#2864AE" d="M101.3,4.1c0,0,3.8-3.5,9.1-3.3C110.4,0.9,105.5-0.2,101.3,4.1"/>
	<path opacity="0.3" fill="#2864AE" d="M110,21.4c0,0,0.9-0.1,1.3-0.3c0.5-0.1,2.4-0.3,4.4-2.1C115.7,19.1,113.8,21.9,110,21.4"/>
	<path opacity="0.3" fill="#2864AE" d="M108.9,4.9c0,0,4.2-0.3,6.6,2.8C115.5,7.7,113.8,4.5,108.9,4.9"/>
	<path opacity="0.3" fill="#2864AE" d="M108.5,4.6c0,0,5.9-1,8.6,4.6C117.1,9.2,115.7,3.5,108.5,4.6"/>
	<path opacity="0.3" fill="#2864AE" d="M98.4,18.3c0,0,2.4,5.6,9.6,6.7C108,25,100.9,24.7,98.4,18.3"/>
	<path opacity="0.3" fill="#2864AE" d="M158.9,4.3c0,0,1.7-1.8,3.8-2.8C162.8,1.5,160.6,2,158.9,4.3"/>
	<path opacity="0.3" fill="#2864AE" d="M159.7,4.1c0,0,3.8-3.5,9.1-3.3C168.8,0.9,163.9-0.2,159.7,4.1"/>
	<path opacity="0.3" fill="#2864AE" d="M168.4,21.4c0,0,0.9-0.1,1.3-0.3c0.5-0.1,2.4-0.3,4.4-2.1C174,19.1,172.2,21.9,168.4,21.4"/>
	<path opacity="0.3" fill="#2864AE" d="M167.3,4.9c0,0,4.2-0.3,6.6,2.8C173.9,7.7,172.1,4.5,167.3,4.9"/>
	<path opacity="0.3" fill="#2864AE" d="M166.9,4.6c0,0,5.9-1,8.6,4.6C175.5,9.2,174.1,3.5,166.9,4.6"/>
	<path opacity="0.3" fill="#2864AE" d="M156.7,18.3c0,0,2.4,5.6,9.6,6.7C166.4,25,159.3,24.7,156.7,18.3"/>
	<path opacity="0.3" fill="#2864AE" d="M129.5,1.7c0,0,0.5-0.7,1-0.8c0.5-0.1,0.5,0.2,0.3,0.3c-0.2,0.1-0.8,0.3-1,0.5
		C129.6,1.9,129.4,1.9,129.5,1.7"/>
	<path opacity="0.3" fill="#2864AE" d="M140.5,5.2c0,0,3.4,1.1,4.8,4.4C145.3,9.6,144.6,5.9,140.5,5.2"/>
	<path opacity="0.3" fill="#2864AE" d="M138.4,21.2c0,0,3.2-0.4,5.8-2.7C144.2,18.4,142.9,21.1,138.4,21.2"/>
	<path opacity="0.3" fill="#2864AE" d="M128.9,23.3c0,0,0.7,1.2,1.7,1.3c0,0-0.2,0.3-0.6,0.1C129.6,24.6,128.7,23.9,128.9,23.3"/>
	<path opacity="0.3" fill="#2864AE" d="M13.2,14.6c0,0,0.6,0.8,1.4,0.8h3.9l0.2-0.3h-4.3C14.4,15,13.7,15.1,13.2,14.6"/>
	<path opacity="0.8" fill="#2864AE" d="M1.2,12.8c0-6.2,5.1-11.3,11.3-11.3c1.3,0,2.5,0.2,3.7,0.6c-1.3-0.6-2.8-0.9-4.4-0.9
		c-6.2,0-11.3,5-11.3,11.2c0,4.3,2.5,8.1,6.1,9.9C3.3,20.4,1.2,16.8,1.2,12.8"/>
	<path opacity="0.8" fill="#2864AE" d="M6.2,7.5c0,0,1.5-1.8,3.7-2.5c0,0-1.5-0.2-3,1.1C6.2,6.8,5.8,7.8,6.2,7.5"/>
	<path opacity="0.8" fill="#2864AE" d="M19,14.9l0.6-1.1v6.3c0,0-2.4,2.5-8,2.1c0,0,4.8-0.1,7.3-2.6L19,14.9z"/>
	<path opacity="0.8" fill="#2864AE" d="M17.6,24.1c0,0,2.5-0.9,4-2.6C21.8,21.4,22.8,22.7,17.6,24.1"/>
	<path opacity="0.8" fill="#2864AE" d="M13.6,13.7c0,0-0.5-0.9,0.6-1.4c0,0-0.6-0.4-1.3-0.2C12.3,12.4,12.7,13.6,13.6,13.7"/>
	<path opacity="0.8" fill="#2864AE" d="M19.6,1.8c0,0,3.7,1.7,2,4c0,0.1,0.3-0.1,0.4-0.2C22.1,5.6,22,6,21.8,6.2
		C21.8,6.2,24.7,3.7,19.6,1.8"/>
	<path opacity="0.8" fill="#2864AE" d="M30.7,23.2V2.5c0,0,0-0.7,0.8-1.1c0,0-1.5-0.1-1.5,1.1v19.9C30,22.5,30.1,22.9,30.7,23.2"/>
	<path opacity="0.8" fill="#2864AE" d="M32.5,24.5c0,0,0.3-0.2,0.4-0.5c0.1-0.2,0.4-0.1,0.3,0.2C33.1,24.5,32.5,25,32.5,24.5"/>
	<path opacity="0.8" fill="#2864AE" d="M32.9,0.6c0,0,1.8,0.3,1.8,2.4v20.1c0,0-0.2,1.4-1.3,1.7c0,0,0.8-0.5,0.8-2v-20
		C34.2,2.8,34.3,1.3,32.9,0.6"/>
	<path opacity="0.8" fill="#2864AE" d="M42,3.2c0,0-0.2-0.7,0.4-1.5c0,0-1.1-0.2-1.2,0.3C41.1,2.3,41.3,2.9,42,3.2"/>
	<path opacity="0.8" fill="#2864AE" d="M59.5,0.7c0,0,1.7,0.5,1.9,1.7c0.1,0.7-0.1,2.1-2,3.9c0,0,1-1.3,0.5-0.9
		c-0.5,0.4-0.8,0.9,0-0.2s1.5-2.7,0.2-3.6C59.9,1.4,58.8,1,59.5,0.7"/>
	<path opacity="0.8" fill="#2864AE" d="M41.6,23.2c0,0-0.3-1,1-2.5c1.3-1.5,13.9-16.8,13.9-16.8l-1.8,0.8L41.5,20.3
		C41.5,20.3,39.9,22.2,41.6,23.2"/>
	<path opacity="0.8" fill="#2864AE" d="M47.5,20.5h12c0,0,1.9,0.3,1.9,2.4c0,0.4-0.3,1.4-1.1,1.7c0,0,0.9-0.8,0.6-2
		C60.6,21.4,59.4,21,59,21H46.2L47.5,20.5z"/>
	<path fill="#2864AE" d="M59.3,24.6c0,0,0.4-0.2,0.6-0.4c0.2-0.3,0-0.4-0.1-0.3C59.6,23.9,58.9,24.4,59.3,24.6"/>
	<path opacity="0.8" fill="#2864AE" d="M68.1,24.3V1.9c0,0,0.2-0.8,1.2-0.6c0,0-2-0.5-2,1v21.3C67.4,23.6,67.6,24.2,68.1,24.3"/>
	<path opacity="0.8" fill="#2864AE" d="M69.3,24.6c0,0,0.4-0.2,0.6-0.4c0.2-0.2,0.4-0.1,0.3,0.2C70.2,24.6,68.9,25,69.3,24.6"/>
	<path opacity="0.8" fill="#2864AE" d="M70.8,24.4c0,0,0.6-0.5,0.6-1.4V9.7l-0.3-0.3V23C71.2,23,71.3,23.7,70.8,24.4"/>
	<path opacity="0.8" fill="#2864AE" d="M79.2,13.3l7.5-11.6c0,0,0.4-0.3,0.7-0.2l-8.2,13.3L79.2,13.3z"/>
	<path opacity="0.8" fill="#2864AE" d="M71.3,8.4l6.9,9.3c0,0,0.7,0.8,1.6,0.1c0,0-1,1.3-2,0.1C76.9,16.6,71.3,8.4,71.3,8.4"/>
	<path opacity="0.8" fill="#2864AE" d="M80.2,18.3c0,0,0.6-0.5,0.6-1.3c0.8-1.1,5.4-7.7,5.4-7.7L86.1,10l-4.9,7.4
		C81.3,17.4,80.7,18.2,80.2,18.3"/>
	<path opacity="0.8" fill="#2864AE" d="M86.8,22.4v-13l0.3-0.7v13.2c0,0,0.2,0.8,0.1,0.9C87.1,22.9,86.8,22.9,86.8,22.4"/>
	<path opacity="0.8" fill="#2864AE" d="M89.2,25c0,0,0.7-0.2,1-0.8c0.3-0.6,0.2,0.2,0.1,0.4C90.2,24.7,89.4,25.5,89.2,25"/>
	<path opacity="0.8" fill="#2864AE" d="M98.3,16.2c0,0-2.2-6.5,3.4-11.9C101.7,4.3,94.9,7.7,98.3,16.2"/>
	<path opacity="0.8" fill="#2864AE" d="M98.1,17.1c0,0,1.9,4.8,8.2,7c0,0-2.2-0.7-3-1.1c0,0,1.4,0.9,2.6,1.3
		C106,24.4,100.3,23,98.1,17.1"/>
	<path opacity="0.8" fill="#2864AE" d="M107.8,24.7c0,0,4.8,0.6,9-2.1C116.8,22.6,113.3,25.8,107.8,24.7"/>
	<path opacity="0.8" fill="#2864AE" d="M115.9,19.5c0,0,4.2-3,2.4-9.3c0,0,0.4,2.3-0.5,4.5l-0.1-0.9c0,0-0.6,5.1-5.7,6.7
		c0,0,3.8-1,5.1-3.8C117.1,16.6,117,18.2,115.9,19.5"/>
	<path opacity="0.8" fill="#2864AE" d="M104.8,5.7c0,0,2.2-1.6,5.2-1.4C110,4.3,107.9,3,104.8,5.7"/>
	<path opacity="0.8" fill="#2864AE" d="M117.6,9.6c0,0-0.2-3.4-4.3-5.2C113.3,4.4,116.6,6.3,117.6,9.6"/>
	<path opacity="0.8" fill="#2864AE" d="M102,12.8c0-4,2.9-7.3,6.7-7.9c-4.1,0.4-7.3,3.9-7.3,8.2c0,4.5,3.6,8.2,8,8.2
		c1.9,0,3.7-0.7,5.1-1.9c-1.3,0.9-2.8,1.4-4.5,1.4C105.6,20.8,102,17.2,102,12.8"/>
	<path opacity="0.8" fill="#2864AE" d="M122.8,12.9c0-6.9-5.5-12.6-12.3-12.6c-0.8,0-1.7,0.1-2.4,0.2c0.4,0,0.8-0.1,1.2-0.1
		c7.3,0,13.2,5.6,13.2,12.6c0,6-4.4,11-10.2,12.3C118.2,24.5,122.8,19.3,122.8,12.9"/>
	<path opacity="0.8" fill="#2864AE" d="M156.6,16.2c0,0-2.2-6.5,3.4-11.9C160,4.3,153.2,7.7,156.6,16.2"/>
	<path opacity="0.8" fill="#2864AE" d="M156.5,17.1c0,0,1.9,4.8,8.2,7c0,0-2.2-0.7-3-1.1c0,0,1.4,0.9,2.6,1.3
		C164.3,24.4,158.6,23,156.5,17.1"/>
	<path opacity="0.8" fill="#2864AE" d="M166.2,24.7c0,0,4.8,0.6,9-2.1C175.1,22.6,171.7,25.8,166.2,24.7"/>
	<path opacity="0.8" fill="#2864AE" d="M174.3,19.5c0,0,4.2-3,2.4-9.3c0,0,0.4,2.3-0.5,4.5l-0.1-0.9c0,0-0.6,5.1-5.7,6.7
		c0,0,3.8-1,5.1-3.8C175.4,16.6,175.3,18.2,174.3,19.5"/>
	<path opacity="0.8" fill="#2864AE" d="M163.1,5.7c0,0,2.2-1.6,5.2-1.4C168.3,4.3,166.2,3,163.1,5.7"/>
	<path opacity="0.8" fill="#2864AE" d="M175.9,9.6c0,0-0.2-3.4-4.3-5.2C171.7,4.4,174.9,6.3,175.9,9.6"/>
	<path opacity="0.8" fill="#2864AE" d="M144,19.5c0,0,4.2-3,2.4-9.3c0,0,0.4,2.3-0.5,4.5l-0.1-0.9c0,0-0.6,5.1-5.7,6.7
		c0,0,3.8-1,5.1-3.8C145.2,16.6,145.1,18.2,144,19.5"/>
	<path opacity="0.8" fill="#2864AE" d="M145.7,9.6c0,0-0.2-3.4-4.3-5.2C141.4,4.4,144.7,6.3,145.7,9.6"/>
	<path opacity="0.8" fill="#2864AE" d="M160.3,12.8c0-4,2.9-7.3,6.7-7.9c-4.1,0.4-7.3,3.9-7.3,8.2c0,4.5,3.6,8.2,8,8.2
		c1.9,0,3.7-0.7,5.1-1.9c-1.3,0.9-2.8,1.4-4.5,1.4C163.9,20.8,160.3,17.2,160.3,12.8"/>
	<path opacity="0.8" fill="#2864AE" d="M181.1,12.9c0-6.9-5.5-12.6-12.3-12.6c-0.8,0-1.7,0.1-2.4,0.2c0.4,0,0.8-0.1,1.2-0.1
		c7.3,0,13.2,5.6,13.2,12.6c0,6-4.4,11-10.2,12.3C176.5,24.5,181.1,19.3,181.1,12.9"/>
	<path opacity="0.8" fill="#2864AE" d="M130,1.9c0,0-0.5,0.5-0.5,1v20c0,0-0.6-0.3-0.6-0.7V2.9L128.5,3c0,0-0.1-0.7,0.1-0.8
		c0.1-0.2-0.2,0.1-0.2,0.1s0.1-1.4,1.7-1.6c0,0-1.2,0.4-1.3,1.3l0.2,0.3c0,0,0.3-0.3,0.3-0.2C129.4,2.2,129.6,2.2,130,1.9"/>
	<path opacity="0.8" fill="#2864AE" d="M133.3,4.9h4.7c0,0,1.2,0,2.1,0.3c0,0-0.9-0.7-2.1-0.7h-5L133.3,4.9z"/>
	<path opacity="0.8" fill="#2864AE" d="M131.1,24.5l-0.6,0.5h7.1c0,0,3.4,0.2,6.1-1.7c0,0-2.3,1.2-5.9,1.2
		C134.3,24.5,131.1,24.5,131.1,24.5"/>
	<path fill="#2864AE" d="M22.1,11.6c0,0,1.3,0.5,1.3,1.6v7.5c0,0,0,0.9-0.8,1.3c0,0,0.4-0.5,0.4-1.4v-7.4
		C23.1,13.2,23.3,12.4,22.1,11.6"/>
	<path opacity="0.2" fill="#2864AE" d="M74.4,7.4l4.3,6.6c0,0,0.2,1.1,0.1,1.1C78.7,15,74.4,7.4,74.4,7.4"/>
</g>
</svg>
